{
  "at_minute_0_past_every_3rd_hour": [
    {
      "kind": "caiexport",
      "metadata": {
        "contentType": "RESOURCE",
        "parent": "organizations/167600783936",
        "assetTypes": [
          "k8s.io/Pod"
        ]
      }
    }
  ],
  "at_01am10_on_sunday": [
    {
      "kind": "gcilistgroups",
      "metadata": {
        "directoryCustomerID": "C018m4170"
      }
    },
    {
      "kind": "caiexport",
      "metadata": {
        "contentType": "IAM_POLICY",
        "parent": "organizations/167600783936",
        "assetTypes": [
          "appengine.googleapis.com/Application",
          "appengine.googleapis.com/Service",
          "appengine.googleapis.com/Version",
          "bigquery.googleapis.com/Dataset",
          "bigquery.googleapis.com/Table",
          "bigtableadmin.googleapis.com/Cluster",
          "bigtableadmin.googleapis.com/Instance",
          "bigtableadmin.googleapis.com/Table",
          "cloudbilling.googleapis.com/BillingAccount",
          "cloudfunctions.googleapis.com/CloudFunction",
          "cloudkms.googleapis.com/CryptoKey",
          "cloudkms.googleapis.com/CryptoKeyVersion",
          "cloudkms.googleapis.com/KeyRing",
          "cloudresourcemanager.googleapis.com/Folder",
          "cloudresourcemanager.googleapis.com/Organization",
          "cloudresourcemanager.googleapis.com/Project",
          "compute.googleapis.com/Address",
          "compute.googleapis.com/Autoscaler",
          "compute.googleapis.com/BackendBucket",
          "compute.googleapis.com/BackendService",
          "compute.googleapis.com/Disk",
          "compute.googleapis.com/Firewall",
          "compute.googleapis.com/ForwardingRule",
          "compute.googleapis.com/GlobalAddress",
          "compute.googleapis.com/GlobalForwardingRule",
          "compute.googleapis.com/HealthCheck",
          "compute.googleapis.com/HttpHealthCheck",
          "compute.googleapis.com/HttpsHealthCheck",
          "compute.googleapis.com/Image",
          "compute.googleapis.com/Instance",
          "compute.googleapis.com/InstanceGroup",
          "compute.googleapis.com/InstanceGroupManager",
          "compute.googleapis.com/InstanceTemplate",
          "compute.googleapis.com/Interconnect",
          "compute.googleapis.com/InterconnectAttachment",
          "compute.googleapis.com/License",
          "compute.googleapis.com/Network",
          "compute.googleapis.com/Project",
          "compute.googleapis.com/RegionBackendService",
          "compute.googleapis.com/RegionDisk",
          "compute.googleapis.com/Route",
          "compute.googleapis.com/Router",
          "compute.googleapis.com/SecurityPolicy",
          "compute.googleapis.com/Snapshot",
          "compute.googleapis.com/SslCertificate",
          "compute.googleapis.com/Subnetwork",
          "compute.googleapis.com/TargetHttpProxy",
          "compute.googleapis.com/TargetHttpsProxy",
          "compute.googleapis.com/TargetInstance",
          "compute.googleapis.com/TargetPool",
          "compute.googleapis.com/TargetSslProxy",
          "compute.googleapis.com/TargetTcpProxy",
          "compute.googleapis.com/TargetVpnGateway",
          "compute.googleapis.com/UrlMap",
          "compute.googleapis.com/VpnTunnel",
          "container.googleapis.com/Cluster",
          "container.googleapis.com/NodePool",
          "datafusion.googleapis.com/Instance",
          "dataproc.googleapis.com/Cluster",
          "dataproc.googleapis.com/Job",
          "dns.googleapis.com/ManagedZone",
          "dns.googleapis.com/Policy",
          "extensions.k8s.io/Ingress",
          "iam.googleapis.com/Role",
          "iam.googleapis.com/ServiceAccount",
          "iam.googleapis.com/ServiceAccountKey",
          "k8s.io/Namespace",
          "k8s.io/Node",
          "k8s.io/Pod",
          "k8s.io/Service",
          "networking.k8s.io/Ingress",
          "pubsub.googleapis.com/Subscription",
          "pubsub.googleapis.com/Topic",
          "rbac.authorization.k8s.io/ClusterRole",
          "rbac.authorization.k8s.io/ClusterRoleBinding",
          "rbac.authorization.k8s.io/Role",
          "rbac.authorization.k8s.io/RoleBinding",
          "serviceusage.googleapis.com/Service",
          "spanner.googleapis.com/Database",
          "spanner.googleapis.com/Instance",
          "sqladmin.googleapis.com/Instance",
          "storage.googleapis.com/Bucket"
        ]
      }
    },
    {
      "kind": "caiexport",
      "metadata": {
        "contentType": "RESOURCE",
        "parent": "organizations/167600783936",
        "assetTypes": [
          "appengine.googleapis.com/Application",
          "appengine.googleapis.com/Service",
          "appengine.googleapis.com/Version",
          "bigquery.googleapis.com/Dataset",
          "cloudfunctions.googleapis.com/CloudFunction",
          "cloudkms.googleapis.com/CryptoKey",
          "cloudresourcemanager.googleapis.com/Folder",
          "cloudresourcemanager.googleapis.com/Organization",
          "cloudresourcemanager.googleapis.com/Project",
          "compute.googleapis.com/Disk",
          "compute.googleapis.com/Firewall",
          "compute.googleapis.com/Instance",
          "compute.googleapis.com/Network",
          "compute.googleapis.com/Router",
          "compute.googleapis.com/Subnetwork",
          "compute.googleapis.com/TargetHttpsProxy",
          "compute.googleapis.com/TargetSslProxy",
          "container.googleapis.com/Cluster",
          "dns.googleapis.com/ManagedZone",
          "iam.googleapis.com/ServiceAccountKey",
          "sqladmin.googleapis.com/Instance",
          "storage.googleapis.com/Bucket"
        ]
      }
    }
  ],
  "at_00am00_on_day_of_month_1_in_january": [
    {
      "kind": "gcilistgroups",
      "metadata": {
        "directoryCustomerID": "C018m4170"
      }
    },
    {
      "kind": "caiexport",
      "metadata": {
        "contentType": "RESOURCE",
        "parent": "organizations/167600783936",
        "assetTypes": [
          "k8s.io/Pod"
        ]
      }
    },
    {
      "kind": "caiexport",
      "metadata": {
        "contentType": "IAM_POLICY",
        "parent": "organizations/167600783936",
        "assetTypes": [
          "appengine.googleapis.com/Application",
          "appengine.googleapis.com/Service",
          "appengine.googleapis.com/Version",
          "bigquery.googleapis.com/Dataset",
          "bigquery.googleapis.com/Table",
          "bigtableadmin.googleapis.com/Cluster",
          "bigtableadmin.googleapis.com/Instance",
          "bigtableadmin.googleapis.com/Table",
          "cloudbilling.googleapis.com/BillingAccount",
          "cloudfunctions.googleapis.com/CloudFunction",
          "cloudkms.googleapis.com/CryptoKey",
          "cloudkms.googleapis.com/CryptoKeyVersion",
          "cloudkms.googleapis.com/KeyRing",
          "cloudresourcemanager.googleapis.com/Folder",
          "cloudresourcemanager.googleapis.com/Organization",
          "cloudresourcemanager.googleapis.com/Project",
          "compute.googleapis.com/Address",
          "compute.googleapis.com/Autoscaler",
          "compute.googleapis.com/BackendBucket",
          "compute.googleapis.com/BackendService",
          "compute.googleapis.com/Disk",
          "compute.googleapis.com/Firewall",
          "compute.googleapis.com/ForwardingRule",
          "compute.googleapis.com/GlobalAddress",
          "compute.googleapis.com/GlobalForwardingRule",
          "compute.googleapis.com/HealthCheck",
          "compute.googleapis.com/HttpHealthCheck",
          "compute.googleapis.com/HttpsHealthCheck",
          "compute.googleapis.com/Image",
          "compute.googleapis.com/Instance",
          "compute.googleapis.com/InstanceGroup",
          "compute.googleapis.com/InstanceGroupManager",
          "compute.googleapis.com/InstanceTemplate",
          "compute.googleapis.com/Interconnect",
          "compute.googleapis.com/InterconnectAttachment",
          "compute.googleapis.com/License",
          "compute.googleapis.com/Network",
          "compute.googleapis.com/Project",
          "compute.googleapis.com/RegionBackendService",
          "compute.googleapis.com/RegionDisk",
          "compute.googleapis.com/Route",
          "compute.googleapis.com/Router",
          "compute.googleapis.com/SecurityPolicy",
          "compute.googleapis.com/Snapshot",
          "compute.googleapis.com/SslCertificate",
          "compute.googleapis.com/Subnetwork",
          "compute.googleapis.com/TargetHttpProxy",
          "compute.googleapis.com/TargetHttpsProxy",
          "compute.googleapis.com/TargetInstance",
          "compute.googleapis.com/TargetPool",
          "compute.googleapis.com/TargetSslProxy",
          "compute.googleapis.com/TargetTcpProxy",
          "compute.googleapis.com/TargetVpnGateway",
          "compute.googleapis.com/UrlMap",
          "compute.googleapis.com/VpnTunnel",
          "container.googleapis.com/Cluster",
          "container.googleapis.com/NodePool",
          "datafusion.googleapis.com/Instance",
          "dataproc.googleapis.com/Cluster",
          "dataproc.googleapis.com/Job",
          "dns.googleapis.com/ManagedZone",
          "dns.googleapis.com/Policy",
          "extensions.k8s.io/Ingress",
          "iam.googleapis.com/Role",
          "iam.googleapis.com/ServiceAccount",
          "iam.googleapis.com/ServiceAccountKey",
          "k8s.io/Namespace",
          "k8s.io/Node",
          "k8s.io/Pod",
          "k8s.io/Service",
          "networking.k8s.io/Ingress",
          "pubsub.googleapis.com/Subscription",
          "pubsub.googleapis.com/Topic",
          "rbac.authorization.k8s.io/ClusterRole",
          "rbac.authorization.k8s.io/ClusterRoleBinding",
          "rbac.authorization.k8s.io/Role",
          "rbac.authorization.k8s.io/RoleBinding",
          "serviceusage.googleapis.com/Service",
          "spanner.googleapis.com/Database",
          "spanner.googleapis.com/Instance",
          "sqladmin.googleapis.com/Instance",
          "storage.googleapis.com/Bucket"
        ]
      }
    },
    {
      "kind": "caiexport",
      "metadata": {
        "contentType": "RESOURCE",
        "parent": "organizations/167600783936",
        "assetTypes": [
          "appengine.googleapis.com/Application",
          "appengine.googleapis.com/Service",
          "appengine.googleapis.com/Version",
          "bigquery.googleapis.com/Dataset",
          "cloudfunctions.googleapis.com/CloudFunction",
          "cloudkms.googleapis.com/CryptoKey",
          "cloudresourcemanager.googleapis.com/Folder",
          "cloudresourcemanager.googleapis.com/Organization",
          "cloudresourcemanager.googleapis.com/Project",
          "compute.googleapis.com/Disk",
          "compute.googleapis.com/Firewall",
          "compute.googleapis.com/Instance",
          "compute.googleapis.com/Network",
          "compute.googleapis.com/Router",
          "compute.googleapis.com/Subnetwork",
          "compute.googleapis.com/TargetHttpsProxy",
          "compute.googleapis.com/TargetSslProxy",
          "container.googleapis.com/Cluster",
          "dns.googleapis.com/ManagedZone",
          "iam.googleapis.com/ServiceAccountKey",
          "sqladmin.googleapis.com/Instance",
          "storage.googleapis.com/Bucket"
        ]
      }
    }
  ]
}